^C:\USERS\OWIK\SOURCE\REPOS\GRAFIKA\SPRAWOZDANIE1\SPRAWOZDANIE1\DEBUG\SPRAWOZDANIE1.OBJ|C:\USERS\OWIK\SOURCE\REPOS\GRAFIKA\SPRAWOZDANIE1\SPRAWOZDANIE1\DEBUG\STDAFX.OBJ
C:\USERS\OWIK\SOURCE\REPOS\GRAFIKA\SPRAWOZDANIE1\DEBUG\SPRAWOZDANIE1.ILK
C:\USERS\OWIK\SOURCE\REPOS\GRAFIKA\SPRAWOZDANIE1\DEBUG\SPRAWOZDANIE1.EXE
C:\USERS\OWIK\SOURCE\REPOS\GRAFIKA\SPRAWOZDANIE1\DEBUG\SPRAWOZDANIE1.PDB
