^D:\MOJE PLIKI\ATH\4 SEM\GRAFIKA\GIT\SPRAWOZDANIE2\ZAD3\CONSOLEAPPLICATION1\CONSOLEAPPLICATION1\DEBUG\CONSOLEAPPLICATION1.OBJ|D:\MOJE PLIKI\ATH\4 SEM\GRAFIKA\GIT\SPRAWOZDANIE2\ZAD3\CONSOLEAPPLICATION1\CONSOLEAPPLICATION1\DEBUG\STDAFX.OBJ
C:\WINDOWS\GLOBALIZATION\SORTING\SORTDEFAULT.NLS
D:\MOJE PLIKI\ATH\4 SEM\GRAFIKA\GIT\SPRAWOZDANIE2\ZAD3\CONSOLEAPPLICATION1\PACKAGES\NUPENGL.CORE.0.1.0.1\BUILD\NATIVE\LIB\WIN32\GLEW32.LIB
D:\MOJE PLIKI\ATH\4 SEM\GRAFIKA\GIT\SPRAWOZDANIE2\ZAD3\CONSOLEAPPLICATION1\PACKAGES\NUPENGL.CORE.0.1.0.1\BUILD\NATIVE\LIB\WIN32\GLFW3DLL.LIB
D:\MOJE PLIKI\ATH\4 SEM\GRAFIKA\GIT\SPRAWOZDANIE2\ZAD3\CONSOLEAPPLICATION1\PACKAGES\NUPENGL.CORE.0.1.0.1\BUILD\NATIVE\LIB\WIN32\FREEGLUT.LIB
C:\PROGRAM FILES (X86)\WINDOWS KITS\10\LIB\10.0.16299.0\UM\X86\KERNEL32.LIB
C:\PROGRAM FILES (X86)\WINDOWS KITS\10\LIB\10.0.16299.0\UM\X86\USER32.LIB
C:\PROGRAM FILES (X86)\WINDOWS KITS\10\LIB\10.0.16299.0\UM\X86\GDI32.LIB
C:\PROGRAM FILES (X86)\WINDOWS KITS\10\LIB\10.0.16299.0\UM\X86\WINSPOOL.LIB
C:\PROGRAM FILES (X86)\WINDOWS KITS\10\LIB\10.0.16299.0\UM\X86\COMDLG32.LIB
C:\PROGRAM FILES (X86)\WINDOWS KITS\10\LIB\10.0.16299.0\UM\X86\ADVAPI32.LIB
C:\PROGRAM FILES (X86)\WINDOWS KITS\10\LIB\10.0.16299.0\UM\X86\SHELL32.LIB
C:\PROGRAM FILES (X86)\WINDOWS KITS\10\LIB\10.0.16299.0\UM\X86\OLE32.LIB
C:\PROGRAM FILES (X86)\WINDOWS KITS\10\LIB\10.0.16299.0\UM\X86\OLEAUT32.LIB
C:\PROGRAM FILES (X86)\WINDOWS KITS\10\LIB\10.0.16299.0\UM\X86\UUID.LIB
C:\PROGRAM FILES (X86)\WINDOWS KITS\10\LIB\10.0.16299.0\UM\X86\ODBC32.LIB
C:\PROGRAM FILES (X86)\WINDOWS KITS\10\LIB\10.0.16299.0\UM\X86\ODBCCP32.LIB
D:\MOJE PLIKI\ATH\4 SEM\GRAFIKA\GIT\SPRAWOZDANIE2\ZAD3\CONSOLEAPPLICATION1\CONSOLEAPPLICATION1\DEBUG\CONSOLEAPPLICATION1.OBJ
D:\MOJE PLIKI\ATH\4 SEM\GRAFIKA\GIT\SPRAWOZDANIE2\ZAD3\CONSOLEAPPLICATION1\CONSOLEAPPLICATION1\DEBUG\STDAFX.OBJ
C:\WINDOWS\SYSTEM32\TZRES.DLL
D:\PROGRAMY\VISUAL STUDIO 2017 ENTERPRISE\VC\TOOLS\MSVC\14.12.25827\LIB\X86\MSVCPRTD.LIB
C:\PROGRAM FILES (X86)\WINDOWS KITS\10\LIB\10.0.16299.0\UM\X86\GLU32.LIB
C:\PROGRAM FILES (X86)\WINDOWS KITS\10\LIB\10.0.16299.0\UM\X86\OPENGL32.LIB
C:\PROGRAM FILES (X86)\WINDOWS KITS\10\LIB\10.0.16299.0\UM\X86\WINMM.LIB
D:\PROGRAMY\VISUAL STUDIO 2017 ENTERPRISE\VC\TOOLS\MSVC\14.12.25827\LIB\X86\MSVCRTD.LIB
D:\PROGRAMY\VISUAL STUDIO 2017 ENTERPRISE\VC\TOOLS\MSVC\14.12.25827\LIB\X86\OLDNAMES.LIB
D:\PROGRAMY\VISUAL STUDIO 2017 ENTERPRISE\VC\TOOLS\MSVC\14.12.25827\LIB\X86\VCRUNTIMED.LIB
C:\PROGRAM FILES (X86)\WINDOWS KITS\10\LIB\10.0.16299.0\UCRT\X86\UCRTD.LIB
D:\PROGRAMY\VISUAL STUDIO 2017 ENTERPRISE\VC\TOOLS\MSVC\14.12.25827\BIN\HOSTX86\X86\LINK.EXE
C:\PROGRAM FILES (X86)\WINDOWS KITS\10\BIN\10.0.16299.0\X86\RC.EXE
D:\PROGRAMY\VISUAL STUDIO 2017 ENTERPRISE\VC\TOOLS\MSVC\14.12.25827\BIN\HOSTX86\X86\CVTRES.EXE
