^D:\MOJE PLIKI\ATH\4 SEM\GRAFIKA\GIT\SPRAWOZDANIE4\ZAD2\CONSOLEAPPLICATION4\DEBUG\CONSOLEAPPLICATION4.OBJ|D:\MOJE PLIKI\ATH\4 SEM\GRAFIKA\GIT\SPRAWOZDANIE4\ZAD2\CONSOLEAPPLICATION4\DEBUG\STDAFX.OBJ|D:\MOJE PLIKI\ATH\4 SEM\GRAFIKA\GIT\SPRAWOZDANIE4\ZAD2\CONSOLEAPPLICATION4\DEBUG\TARGA.OBJ
D:\MOJE PLIKI\ATH\4 SEM\GRAFIKA\GIT\SPRAWOZDANIE4\ZAD2\DEBUG\CONSOLEAPPLICATION4.EXE
D:\MOJE PLIKI\ATH\4 SEM\GRAFIKA\GIT\SPRAWOZDANIE4\ZAD2\DEBUG\CONSOLEAPPLICATION4.ILK
D:\MOJE PLIKI\ATH\4 SEM\GRAFIKA\GIT\SPRAWOZDANIE4\ZAD2\DEBUG\CONSOLEAPPLICATION4.PDB
