^G:\GRAF LAB5 DZIAŁA!!!!!\555\STDAFX.CPP
D:\PROGRAMY\VISUAL STUDIO 2017 ENTERPRISE\VC\TOOLS\MSVC\14.13.26128\BIN\HOSTX86\X86\1033\CLUI.DLL
C:\WINDOWS\GLOBALIZATION\SORTING\SORTDEFAULT.NLS
C:\WINDOWS\SYSTEM32\TZRES.DLL
G:\GRAF LAB5 DZIAłA!!!!!\555\STDAFX.H
G:\GRAF LAB5 DZIAłA!!!!!\555\TARGETVER.H
C:\PROGRAM FILES (X86)\WINDOWS KITS\10\INCLUDE\10.0.16299.0\SHARED\SDKDDKVER.H
C:\PROGRAM FILES (X86)\WINDOWS KITS\10\INCLUDE\10.0.16299.0\UCRT\STDIO.H
C:\PROGRAM FILES (X86)\WINDOWS KITS\10\INCLUDE\10.0.16299.0\UCRT\CORECRT.H
D:\PROGRAMY\VISUAL STUDIO 2017 ENTERPRISE\VC\TOOLS\MSVC\14.13.26128\INCLUDE\VCRUNTIME.H
D:\PROGRAMY\VISUAL STUDIO 2017 ENTERPRISE\VC\TOOLS\MSVC\14.13.26128\INCLUDE\SAL.H
D:\PROGRAMY\VISUAL STUDIO 2017 ENTERPRISE\VC\TOOLS\MSVC\14.13.26128\INCLUDE\CONCURRENCYSAL.H
D:\PROGRAMY\VISUAL STUDIO 2017 ENTERPRISE\VC\TOOLS\MSVC\14.13.26128\INCLUDE\VADEFS.H
C:\PROGRAM FILES (X86)\WINDOWS KITS\10\INCLUDE\10.0.16299.0\UCRT\CORECRT_WSTDIO.H
C:\PROGRAM FILES (X86)\WINDOWS KITS\10\INCLUDE\10.0.16299.0\UCRT\CORECRT_STDIO_CONFIG.H
C:\PROGRAM FILES (X86)\WINDOWS KITS\10\INCLUDE\10.0.16299.0\UCRT\TCHAR.H
C:\PROGRAM FILES (X86)\WINDOWS KITS\10\INCLUDE\10.0.16299.0\UCRT\WCHAR.H
C:\PROGRAM FILES (X86)\WINDOWS KITS\10\INCLUDE\10.0.16299.0\UCRT\CORECRT_MEMCPY_S.H
C:\PROGRAM FILES (X86)\WINDOWS KITS\10\INCLUDE\10.0.16299.0\UCRT\ERRNO.H
D:\PROGRAMY\VISUAL STUDIO 2017 ENTERPRISE\VC\TOOLS\MSVC\14.13.26128\INCLUDE\VCRUNTIME_STRING.H
C:\PROGRAM FILES (X86)\WINDOWS KITS\10\INCLUDE\10.0.16299.0\UCRT\CORECRT_WCONIO.H
C:\PROGRAM FILES (X86)\WINDOWS KITS\10\INCLUDE\10.0.16299.0\UCRT\CORECRT_WCTYPE.H
C:\PROGRAM FILES (X86)\WINDOWS KITS\10\INCLUDE\10.0.16299.0\UCRT\CORECRT_WDIRECT.H
C:\PROGRAM FILES (X86)\WINDOWS KITS\10\INCLUDE\10.0.16299.0\UCRT\CORECRT_WIO.H
C:\PROGRAM FILES (X86)\WINDOWS KITS\10\INCLUDE\10.0.16299.0\UCRT\CORECRT_SHARE.H
C:\PROGRAM FILES (X86)\WINDOWS KITS\10\INCLUDE\10.0.16299.0\UCRT\CORECRT_WPROCESS.H
C:\PROGRAM FILES (X86)\WINDOWS KITS\10\INCLUDE\10.0.16299.0\UCRT\CORECRT_WSTDLIB.H
C:\PROGRAM FILES (X86)\WINDOWS KITS\10\INCLUDE\10.0.16299.0\UCRT\CORECRT_WSTRING.H
C:\PROGRAM FILES (X86)\WINDOWS KITS\10\INCLUDE\10.0.16299.0\UCRT\CORECRT_WTIME.H
C:\PROGRAM FILES (X86)\WINDOWS KITS\10\INCLUDE\10.0.16299.0\UCRT\SYS\STAT.H
C:\PROGRAM FILES (X86)\WINDOWS KITS\10\INCLUDE\10.0.16299.0\UCRT\SYS\TYPES.H
^G:\GRAF LAB5 DZIAŁA!!!!!\555\SOURCE.CPP
D:\PROGRAMY\VISUAL STUDIO 2017 ENTERPRISE\VC\TOOLS\MSVC\14.13.26128\BIN\HOSTX86\X86\1033\CLUI.DLL
C:\WINDOWS\GLOBALIZATION\SORTING\SORTDEFAULT.NLS
G:\GRAF LAB5 DZIAŁA!!!!!\555\DEBUG\555.PCH
C:\WINDOWS\SYSTEM32\TZRES.DLL
G:\GRAF LAB5 DZIAŁA!!!!!\PACKAGES\NUPENGL.CORE.0.1.0.1\BUILD\NATIVE\INCLUDE\GL\GLUT.H
G:\GRAF LAB5 DZIAłA!!!!!\PACKAGES\NUPENGL.CORE.0.1.0.1\BUILD\NATIVE\INCLUDE\GL\FREEGLUT_STD.H
C:\PROGRAM FILES (X86)\WINDOWS KITS\10\INCLUDE\10.0.16299.0\UM\WINDOWS.H
C:\PROGRAM FILES (X86)\WINDOWS KITS\10\INCLUDE\10.0.16299.0\SHARED\WINAPIFAMILY.H
C:\PROGRAM FILES (X86)\WINDOWS KITS\10\INCLUDE\10.0.16299.0\SHARED\WINPACKAGEFAMILY.H
D:\PROGRAMY\VISUAL STUDIO 2017 ENTERPRISE\VC\TOOLS\MSVC\14.13.26128\INCLUDE\EXCPT.H
D:\PROGRAMY\VISUAL STUDIO 2017 ENTERPRISE\VC\TOOLS\MSVC\14.13.26128\INCLUDE\VCRUNTIME.H
D:\PROGRAMY\VISUAL STUDIO 2017 ENTERPRISE\VC\TOOLS\MSVC\14.13.26128\INCLUDE\STDARG.H
C:\PROGRAM FILES (X86)\WINDOWS KITS\10\INCLUDE\10.0.16299.0\SHARED\WINDEF.H
C:\PROGRAM FILES (X86)\WINDOWS KITS\10\INCLUDE\10.0.16299.0\SHARED\MINWINDEF.H
C:\PROGRAM FILES (X86)\WINDOWS KITS\10\INCLUDE\10.0.16299.0\SHARED\SPECSTRINGS.H
C:\PROGRAM FILES (X86)\WINDOWS KITS\10\INCLUDE\10.0.16299.0\SHARED\SPECSTRINGS_STRICT.H
C:\PROGRAM FILES (X86)\WINDOWS KITS\10\INCLUDE\10.0.16299.0\SHARED\SPECSTRINGS_UNDEF.H
C:\PROGRAM FILES (X86)\WINDOWS KITS\10\INCLUDE\10.0.16299.0\SHARED\DRIVERSPECS.H
C:\PROGRAM FILES (X86)\WINDOWS KITS\10\INCLUDE\10.0.16299.0\SHARED\SDV_DRIVERSPECS.H
C:\PROGRAM FILES (X86)\WINDOWS KITS\10\INCLUDE\10.0.16299.0\UM\WINNT.H
C:\PROGRAM FILES (X86)\WINDOWS KITS\10\INCLUDE\10.0.16299.0\UCRT\CTYPE.H
C:\PROGRAM FILES (X86)\WINDOWS KITS\10\INCLUDE\10.0.16299.0\SHARED\KERNELSPECS.H
C:\PROGRAM FILES (X86)\WINDOWS KITS\10\INCLUDE\10.0.16299.0\SHARED\BASETSD.H
C:\PROGRAM FILES (X86)\WINDOWS KITS\10\INCLUDE\10.0.16299.0\SHARED\GUIDDEF.H
C:\PROGRAM FILES (X86)\WINDOWS KITS\10\INCLUDE\10.0.16299.0\UCRT\STRING.H
C:\PROGRAM FILES (X86)\WINDOWS KITS\10\INCLUDE\10.0.16299.0\UCRT\CORECRT_MEMORY.H
C:\PROGRAM FILES (X86)\WINDOWS KITS\10\INCLUDE\10.0.16299.0\SHARED\PSHPACK4.H
C:\PROGRAM FILES (X86)\WINDOWS KITS\10\INCLUDE\10.0.16299.0\SHARED\POPPACK.H
C:\PROGRAM FILES (X86)\WINDOWS KITS\10\INCLUDE\10.0.16299.0\SHARED\PSHPACK2.H
C:\PROGRAM FILES (X86)\WINDOWS KITS\10\INCLUDE\10.0.16299.0\SHARED\PSHPACK8.H
C:\PROGRAM FILES (X86)\WINDOWS KITS\10\INCLUDE\10.0.16299.0\SHARED\PSHPACK1.H
C:\PROGRAM FILES (X86)\WINDOWS KITS\10\INCLUDE\10.0.16299.0\SHARED\APISET.H
C:\PROGRAM FILES (X86)\WINDOWS KITS\10\INCLUDE\10.0.16299.0\SHARED\KTMTYPES.H
C:\PROGRAM FILES (X86)\WINDOWS KITS\10\INCLUDE\10.0.16299.0\UM\WINBASE.H
C:\PROGRAM FILES (X86)\WINDOWS KITS\10\INCLUDE\10.0.16299.0\SHARED\APISETCCONV.H
C:\PROGRAM FILES (X86)\WINDOWS KITS\10\INCLUDE\10.0.16299.0\UM\MINWINBASE.H
C:\PROGRAM FILES (X86)\WINDOWS KITS\10\INCLUDE\10.0.16299.0\UM\PROCESSENV.H
C:\PROGRAM FILES (X86)\WINDOWS KITS\10\INCLUDE\10.0.16299.0\UM\FILEAPI.H
C:\PROGRAM FILES (X86)\WINDOWS KITS\10\INCLUDE\10.0.16299.0\UM\DEBUGAPI.H
C:\PROGRAM FILES (X86)\WINDOWS KITS\10\INCLUDE\10.0.16299.0\UM\UTILAPISET.H
C:\PROGRAM FILES (X86)\WINDOWS KITS\10\INCLUDE\10.0.16299.0\UM\HANDLEAPI.H
C:\PROGRAM FILES (X86)\WINDOWS KITS\10\INCLUDE\10.0.16299.0\UM\ERRHANDLINGAPI.H
C:\PROGRAM FILES (X86)\WINDOWS KITS\10\INCLUDE\10.0.16299.0\UM\FIBERSAPI.H
C:\PROGRAM FILES (X86)\WINDOWS KITS\10\INCLUDE\10.0.16299.0\UM\NAMEDPIPEAPI.H
C:\PROGRAM FILES (X86)\WINDOWS KITS\10\INCLUDE\10.0.16299.0\UM\PROFILEAPI.H
C:\PROGRAM FILES (X86)\WINDOWS KITS\10\INCLUDE\10.0.16299.0\UM\HEAPAPI.H
C:\PROGRAM FILES (X86)\WINDOWS KITS\10\INCLUDE\10.0.16299.0\UM\IOAPISET.H
C:\PROGRAM FILES (X86)\WINDOWS KITS\10\INCLUDE\10.0.16299.0\UM\SYNCHAPI.H
C:\PROGRAM FILES (X86)\WINDOWS KITS\10\INCLUDE\10.0.16299.0\UM\INTERLOCKEDAPI.H
C:\PROGRAM FILES (X86)\WINDOWS KITS\10\INCLUDE\10.0.16299.0\UM\PROCESSTHREADSAPI.H
C:\PROGRAM FILES (X86)\WINDOWS KITS\10\INCLUDE\10.0.16299.0\UM\SYSINFOAPI.H
C:\PROGRAM FILES (X86)\WINDOWS KITS\10\INCLUDE\10.0.16299.0\UM\MEMORYAPI.H
C:\PROGRAM FILES (X86)\WINDOWS KITS\10\INCLUDE\10.0.16299.0\UM\ENCLAVEAPI.H
C:\PROGRAM FILES (X86)\WINDOWS KITS\10\INCLUDE\10.0.16299.0\UM\THREADPOOLLEGACYAPISET.H
C:\PROGRAM FILES (X86)\WINDOWS KITS\10\INCLUDE\10.0.16299.0\UM\THREADPOOLAPISET.H
C:\PROGRAM FILES (X86)\WINDOWS KITS\10\INCLUDE\10.0.16299.0\UM\JOBAPI.H
C:\PROGRAM FILES (X86)\WINDOWS KITS\10\INCLUDE\10.0.16299.0\UM\JOBAPI2.H
C:\PROGRAM FILES (X86)\WINDOWS KITS\10\INCLUDE\10.0.16299.0\UM\WOW64APISET.H
C:\PROGRAM FILES (X86)\WINDOWS KITS\10\INCLUDE\10.0.16299.0\UM\LIBLOADERAPI.H
C:\PROGRAM FILES (X86)\WINDOWS KITS\10\INCLUDE\10.0.16299.0\UM\SECURITYBASEAPI.H
C:\PROGRAM FILES (X86)\WINDOWS KITS\10\INCLUDE\10.0.16299.0\UM\NAMESPACEAPI.H
C:\PROGRAM FILES (X86)\WINDOWS KITS\10\INCLUDE\10.0.16299.0\UM\SYSTEMTOPOLOGYAPI.H
C:\PROGRAM FILES (X86)\WINDOWS KITS\10\INCLUDE\10.0.16299.0\UM\PROCESSTOPOLOGYAPI.H
C:\PROGRAM FILES (X86)\WINDOWS KITS\10\INCLUDE\10.0.16299.0\UM\SECURITYAPPCONTAINER.H
C:\PROGRAM FILES (X86)\WINDOWS KITS\10\INCLUDE\10.0.16299.0\UM\REALTIMEAPISET.H
C:\PROGRAM FILES (X86)\WINDOWS KITS\10\INCLUDE\10.0.16299.0\SHARED\WINERROR.H
C:\PROGRAM FILES (X86)\WINDOWS KITS\10\INCLUDE\10.0.16299.0\UM\TIMEZONEAPI.H
C:\PROGRAM FILES (X86)\WINDOWS KITS\10\INCLUDE\10.0.16299.0\UM\WINGDI.H
C:\PROGRAM FILES (X86)\WINDOWS KITS\10\INCLUDE\10.0.16299.0\UM\WINUSER.H
C:\PROGRAM FILES (X86)\WINDOWS KITS\10\INCLUDE\10.0.16299.0\SHARED\TVOUT.H
C:\PROGRAM FILES (X86)\WINDOWS KITS\10\INCLUDE\10.0.16299.0\UM\WINNLS.H
C:\PROGRAM FILES (X86)\WINDOWS KITS\10\INCLUDE\10.0.16299.0\UM\DATETIMEAPI.H
C:\PROGRAM FILES (X86)\WINDOWS KITS\10\INCLUDE\10.0.16299.0\UM\STRINGAPISET.H
C:\PROGRAM FILES (X86)\WINDOWS KITS\10\INCLUDE\10.0.16299.0\UM\WINCON.H
C:\PROGRAM FILES (X86)\WINDOWS KITS\10\INCLUDE\10.0.16299.0\UM\CONSOLEAPI.H
C:\PROGRAM FILES (X86)\WINDOWS KITS\10\INCLUDE\10.0.16299.0\UM\WINVER.H
C:\PROGRAM FILES (X86)\WINDOWS KITS\10\INCLUDE\10.0.16299.0\UM\VERRSRC.H
C:\PROGRAM FILES (X86)\WINDOWS KITS\10\INCLUDE\10.0.16299.0\UM\WINREG.H
C:\PROGRAM FILES (X86)\WINDOWS KITS\10\INCLUDE\10.0.16299.0\UM\REASON.H
C:\PROGRAM FILES (X86)\WINDOWS KITS\10\INCLUDE\10.0.16299.0\UM\WINNETWK.H
C:\PROGRAM FILES (X86)\WINDOWS KITS\10\INCLUDE\10.0.16299.0\SHARED\WNNC.H
C:\PROGRAM FILES (X86)\WINDOWS KITS\10\INCLUDE\10.0.16299.0\SHARED\STRALIGN.H
C:\PROGRAM FILES (X86)\WINDOWS KITS\10\INCLUDE\10.0.16299.0\UM\WINSVC.H
C:\PROGRAM FILES (X86)\WINDOWS KITS\10\INCLUDE\10.0.16299.0\UM\MCX.H
C:\PROGRAM FILES (X86)\WINDOWS KITS\10\INCLUDE\10.0.16299.0\UM\IMM.H
C:\PROGRAM FILES (X86)\WINDOWS KITS\10\INCLUDE\10.0.16299.0\UM\IME_CMODES.H
C:\PROGRAM FILES (X86)\WINDOWS KITS\10\INCLUDE\10.0.16299.0\UM\GL\GL.H
C:\PROGRAM FILES (X86)\WINDOWS KITS\10\INCLUDE\10.0.16299.0\UM\GL\GLU.H
C:\PROGRAM FILES (X86)\WINDOWS KITS\10\INCLUDE\10.0.16299.0\UCRT\STDLIB.H
C:\PROGRAM FILES (X86)\WINDOWS KITS\10\INCLUDE\10.0.16299.0\UCRT\CORECRT_MALLOC.H
C:\PROGRAM FILES (X86)\WINDOWS KITS\10\INCLUDE\10.0.16299.0\UCRT\CORECRT_SEARCH.H
C:\PROGRAM FILES (X86)\WINDOWS KITS\10\INCLUDE\10.0.16299.0\UCRT\STDDEF.H
D:\PROGRAMY\VISUAL STUDIO 2017 ENTERPRISE\VC\TOOLS\MSVC\14.13.26128\INCLUDE\LIMITS.H
G:\GRAF LAB5 DZIAłA!!!!!\555\GLEXT.H
G:\GRAF LAB5 DZIAłA!!!!!\555\MATERIALS.H
D:\PROGRAMY\VISUAL STUDIO 2017 ENTERPRISE\VC\TOOLS\MSVC\14.13.26128\INCLUDE\ARRAY
D:\PROGRAMY\VISUAL STUDIO 2017 ENTERPRISE\VC\TOOLS\MSVC\14.13.26128\INCLUDE\ALGORITHM
D:\PROGRAMY\VISUAL STUDIO 2017 ENTERPRISE\VC\TOOLS\MSVC\14.13.26128\INCLUDE\XMEMORY
D:\PROGRAMY\VISUAL STUDIO 2017 ENTERPRISE\VC\TOOLS\MSVC\14.13.26128\INCLUDE\XMEMORY0
D:\PROGRAMY\VISUAL STUDIO 2017 ENTERPRISE\VC\TOOLS\MSVC\14.13.26128\INCLUDE\CSTDINT
D:\PROGRAMY\VISUAL STUDIO 2017 ENTERPRISE\VC\TOOLS\MSVC\14.13.26128\INCLUDE\YVALS.H
D:\PROGRAMY\VISUAL STUDIO 2017 ENTERPRISE\VC\TOOLS\MSVC\14.13.26128\INCLUDE\XKEYCHECK.H
D:\PROGRAMY\VISUAL STUDIO 2017 ENTERPRISE\VC\TOOLS\MSVC\14.13.26128\INCLUDE\CRTDEFS.H
D:\PROGRAMY\VISUAL STUDIO 2017 ENTERPRISE\VC\TOOLS\MSVC\14.13.26128\INCLUDE\USE_ANSI.H
D:\PROGRAMY\VISUAL STUDIO 2017 ENTERPRISE\VC\TOOLS\MSVC\14.13.26128\INCLUDE\STDINT.H
D:\PROGRAMY\VISUAL STUDIO 2017 ENTERPRISE\VC\TOOLS\MSVC\14.13.26128\INCLUDE\CSTDLIB
C:\PROGRAM FILES (X86)\WINDOWS KITS\10\INCLUDE\10.0.16299.0\UCRT\MATH.H
C:\PROGRAM FILES (X86)\WINDOWS KITS\10\INCLUDE\10.0.16299.0\UCRT\CORECRT_MATH.H
D:\PROGRAMY\VISUAL STUDIO 2017 ENTERPRISE\VC\TOOLS\MSVC\14.13.26128\INCLUDE\LIMITS
D:\PROGRAMY\VISUAL STUDIO 2017 ENTERPRISE\VC\TOOLS\MSVC\14.13.26128\INCLUDE\YMATH.H
D:\PROGRAMY\VISUAL STUDIO 2017 ENTERPRISE\VC\TOOLS\MSVC\14.13.26128\INCLUDE\CFLOAT
C:\PROGRAM FILES (X86)\WINDOWS KITS\10\INCLUDE\10.0.16299.0\UCRT\FLOAT.H
D:\PROGRAMY\VISUAL STUDIO 2017 ENTERPRISE\VC\TOOLS\MSVC\14.13.26128\INCLUDE\CLIMITS
D:\PROGRAMY\VISUAL STUDIO 2017 ENTERPRISE\VC\TOOLS\MSVC\14.13.26128\INCLUDE\CMATH
D:\PROGRAMY\VISUAL STUDIO 2017 ENTERPRISE\VC\TOOLS\MSVC\14.13.26128\INCLUDE\XTGMATH.H
D:\PROGRAMY\VISUAL STUDIO 2017 ENTERPRISE\VC\TOOLS\MSVC\14.13.26128\INCLUDE\XTR1COMMON
D:\PROGRAMY\VISUAL STUDIO 2017 ENTERPRISE\VC\TOOLS\MSVC\14.13.26128\INCLUDE\CWCHAR
D:\PROGRAMY\VISUAL STUDIO 2017 ENTERPRISE\VC\TOOLS\MSVC\14.13.26128\INCLUDE\XSTDDEF
D:\PROGRAMY\VISUAL STUDIO 2017 ENTERPRISE\VC\TOOLS\MSVC\14.13.26128\INCLUDE\CSTDDEF
D:\PROGRAMY\VISUAL STUDIO 2017 ENTERPRISE\VC\TOOLS\MSVC\14.13.26128\INCLUDE\INITIALIZER_LIST
D:\PROGRAMY\VISUAL STUDIO 2017 ENTERPRISE\VC\TOOLS\MSVC\14.13.26128\INCLUDE\NEW
D:\PROGRAMY\VISUAL STUDIO 2017 ENTERPRISE\VC\TOOLS\MSVC\14.13.26128\INCLUDE\EXCEPTION
D:\PROGRAMY\VISUAL STUDIO 2017 ENTERPRISE\VC\TOOLS\MSVC\14.13.26128\INCLUDE\TYPE_TRAITS
C:\PROGRAM FILES (X86)\WINDOWS KITS\10\INCLUDE\10.0.16299.0\UCRT\MALLOC.H
D:\PROGRAMY\VISUAL STUDIO 2017 ENTERPRISE\VC\TOOLS\MSVC\14.13.26128\INCLUDE\VCRUNTIME_EXCEPTION.H
D:\PROGRAMY\VISUAL STUDIO 2017 ENTERPRISE\VC\TOOLS\MSVC\14.13.26128\INCLUDE\EH.H
C:\PROGRAM FILES (X86)\WINDOWS KITS\10\INCLUDE\10.0.16299.0\UCRT\CORECRT_TERMINATE.H
D:\PROGRAMY\VISUAL STUDIO 2017 ENTERPRISE\VC\TOOLS\MSVC\14.13.26128\INCLUDE\VCRUNTIME_NEW.H
D:\PROGRAMY\VISUAL STUDIO 2017 ENTERPRISE\VC\TOOLS\MSVC\14.13.26128\INCLUDE\XUTILITY
D:\PROGRAMY\VISUAL STUDIO 2017 ENTERPRISE\VC\TOOLS\MSVC\14.13.26128\INCLUDE\UTILITY
D:\PROGRAMY\VISUAL STUDIO 2017 ENTERPRISE\VC\TOOLS\MSVC\14.13.26128\INCLUDE\IOSFWD
D:\PROGRAMY\VISUAL STUDIO 2017 ENTERPRISE\VC\TOOLS\MSVC\14.13.26128\INCLUDE\CSTDIO
D:\PROGRAMY\VISUAL STUDIO 2017 ENTERPRISE\VC\TOOLS\MSVC\14.13.26128\INCLUDE\CSTRING
C:\PROGRAM FILES (X86)\WINDOWS KITS\10\INCLUDE\10.0.16299.0\UCRT\CRTDBG.H
D:\PROGRAMY\VISUAL STUDIO 2017 ENTERPRISE\VC\TOOLS\MSVC\14.13.26128\INCLUDE\VCRUNTIME_NEW_DEBUG.H
D:\PROGRAMY\VISUAL STUDIO 2017 ENTERPRISE\VC\TOOLS\MSVC\14.13.26128\INCLUDE\XATOMIC0.H
D:\PROGRAMY\VISUAL STUDIO 2017 ENTERPRISE\VC\TOOLS\MSVC\14.13.26128\INCLUDE\INTRIN0.H
D:\PROGRAMY\VISUAL STUDIO 2017 ENTERPRISE\VC\TOOLS\MSVC\14.13.26128\INCLUDE\ITERATOR
D:\PROGRAMY\VISUAL STUDIO 2017 ENTERPRISE\VC\TOOLS\MSVC\14.13.26128\INCLUDE\ISTREAM
D:\PROGRAMY\VISUAL STUDIO 2017 ENTERPRISE\VC\TOOLS\MSVC\14.13.26128\INCLUDE\OSTREAM
D:\PROGRAMY\VISUAL STUDIO 2017 ENTERPRISE\VC\TOOLS\MSVC\14.13.26128\INCLUDE\IOS
D:\PROGRAMY\VISUAL STUDIO 2017 ENTERPRISE\VC\TOOLS\MSVC\14.13.26128\INCLUDE\XLOCNUM
D:\PROGRAMY\VISUAL STUDIO 2017 ENTERPRISE\VC\TOOLS\MSVC\14.13.26128\INCLUDE\STREAMBUF
D:\PROGRAMY\VISUAL STUDIO 2017 ENTERPRISE\VC\TOOLS\MSVC\14.13.26128\INCLUDE\XIOSBASE
D:\PROGRAMY\VISUAL STUDIO 2017 ENTERPRISE\VC\TOOLS\MSVC\14.13.26128\INCLUDE\XLOCALE
D:\PROGRAMY\VISUAL STUDIO 2017 ENTERPRISE\VC\TOOLS\MSVC\14.13.26128\INCLUDE\STDEXCEPT
D:\PROGRAMY\VISUAL STUDIO 2017 ENTERPRISE\VC\TOOLS\MSVC\14.13.26128\INCLUDE\XSTRING
D:\PROGRAMY\VISUAL STUDIO 2017 ENTERPRISE\VC\TOOLS\MSVC\14.13.26128\INCLUDE\TYPEINFO
D:\PROGRAMY\VISUAL STUDIO 2017 ENTERPRISE\VC\TOOLS\MSVC\14.13.26128\INCLUDE\VCRUNTIME_TYPEINFO.H
D:\PROGRAMY\VISUAL STUDIO 2017 ENTERPRISE\VC\TOOLS\MSVC\14.13.26128\INCLUDE\XLOCINFO
D:\PROGRAMY\VISUAL STUDIO 2017 ENTERPRISE\VC\TOOLS\MSVC\14.13.26128\INCLUDE\XLOCINFO.H
C:\PROGRAM FILES (X86)\WINDOWS KITS\10\INCLUDE\10.0.16299.0\UCRT\LOCALE.H
D:\PROGRAMY\VISUAL STUDIO 2017 ENTERPRISE\VC\TOOLS\MSVC\14.13.26128\INCLUDE\XFACET
D:\PROGRAMY\VISUAL STUDIO 2017 ENTERPRISE\VC\TOOLS\MSVC\14.13.26128\INCLUDE\SYSTEM_ERROR
D:\PROGRAMY\VISUAL STUDIO 2017 ENTERPRISE\VC\TOOLS\MSVC\14.13.26128\INCLUDE\CERRNO
D:\PROGRAMY\VISUAL STUDIO 2017 ENTERPRISE\VC\TOOLS\MSVC\14.13.26128\INCLUDE\XCALL_ONCE.H
C:\PROGRAM FILES (X86)\WINDOWS KITS\10\INCLUDE\10.0.16299.0\UCRT\SHARE.H
D:\PROGRAMY\VISUAL STUDIO 2017 ENTERPRISE\VC\TOOLS\MSVC\14.13.26128\INCLUDE\TUPLE
G:\GRAF LAB5 DZIAłA!!!!!\555\VECTORMATH.CPP
G:\GRAF LAB5 DZIAłA!!!!!\555\GLTOOLS_EXTRACTED.H
G:\GRAF LAB5 DZIAłA!!!!!\555\COLORS.H
^D:\MOJE PLIKI\ATH\4 SEM\GRAFIKA\GIT\SPRAWOZDANIE5\555\STDAFX.CPP
D:\PROGRAMY\VISUAL STUDIO 2017 ENTERPRISE\VC\TOOLS\MSVC\14.13.26128\BIN\HOSTX86\X86\1033\CLUI.DLL
C:\WINDOWS\GLOBALIZATION\SORTING\SORTDEFAULT.NLS
C:\WINDOWS\SYSTEM32\TZRES.DLL
D:\MOJE PLIKI\ATH\4 SEM\GRAFIKA\GIT\SPRAWOZDANIE5\555\STDAFX.H
D:\MOJE PLIKI\ATH\4 SEM\GRAFIKA\GIT\SPRAWOZDANIE5\555\TARGETVER.H
C:\PROGRAM FILES (X86)\WINDOWS KITS\10\INCLUDE\10.0.16299.0\SHARED\SDKDDKVER.H
C:\PROGRAM FILES (X86)\WINDOWS KITS\10\INCLUDE\10.0.16299.0\UCRT\STDIO.H
C:\PROGRAM FILES (X86)\WINDOWS KITS\10\INCLUDE\10.0.16299.0\UCRT\CORECRT.H
D:\PROGRAMY\VISUAL STUDIO 2017 ENTERPRISE\VC\TOOLS\MSVC\14.13.26128\INCLUDE\VCRUNTIME.H
D:\PROGRAMY\VISUAL STUDIO 2017 ENTERPRISE\VC\TOOLS\MSVC\14.13.26128\INCLUDE\SAL.H
D:\PROGRAMY\VISUAL STUDIO 2017 ENTERPRISE\VC\TOOLS\MSVC\14.13.26128\INCLUDE\CONCURRENCYSAL.H
D:\PROGRAMY\VISUAL STUDIO 2017 ENTERPRISE\VC\TOOLS\MSVC\14.13.26128\INCLUDE\VADEFS.H
C:\PROGRAM FILES (X86)\WINDOWS KITS\10\INCLUDE\10.0.16299.0\UCRT\CORECRT_WSTDIO.H
C:\PROGRAM FILES (X86)\WINDOWS KITS\10\INCLUDE\10.0.16299.0\UCRT\CORECRT_STDIO_CONFIG.H
C:\PROGRAM FILES (X86)\WINDOWS KITS\10\INCLUDE\10.0.16299.0\UCRT\TCHAR.H
C:\PROGRAM FILES (X86)\WINDOWS KITS\10\INCLUDE\10.0.16299.0\UCRT\WCHAR.H
C:\PROGRAM FILES (X86)\WINDOWS KITS\10\INCLUDE\10.0.16299.0\UCRT\CORECRT_MEMCPY_S.H
C:\PROGRAM FILES (X86)\WINDOWS KITS\10\INCLUDE\10.0.16299.0\UCRT\ERRNO.H
D:\PROGRAMY\VISUAL STUDIO 2017 ENTERPRISE\VC\TOOLS\MSVC\14.13.26128\INCLUDE\VCRUNTIME_STRING.H
C:\PROGRAM FILES (X86)\WINDOWS KITS\10\INCLUDE\10.0.16299.0\UCRT\CORECRT_WCONIO.H
C:\PROGRAM FILES (X86)\WINDOWS KITS\10\INCLUDE\10.0.16299.0\UCRT\CORECRT_WCTYPE.H
C:\PROGRAM FILES (X86)\WINDOWS KITS\10\INCLUDE\10.0.16299.0\UCRT\CORECRT_WDIRECT.H
C:\PROGRAM FILES (X86)\WINDOWS KITS\10\INCLUDE\10.0.16299.0\UCRT\CORECRT_WIO.H
C:\PROGRAM FILES (X86)\WINDOWS KITS\10\INCLUDE\10.0.16299.0\UCRT\CORECRT_SHARE.H
C:\PROGRAM FILES (X86)\WINDOWS KITS\10\INCLUDE\10.0.16299.0\UCRT\CORECRT_WPROCESS.H
C:\PROGRAM FILES (X86)\WINDOWS KITS\10\INCLUDE\10.0.16299.0\UCRT\CORECRT_WSTDLIB.H
C:\PROGRAM FILES (X86)\WINDOWS KITS\10\INCLUDE\10.0.16299.0\UCRT\CORECRT_WSTRING.H
C:\PROGRAM FILES (X86)\WINDOWS KITS\10\INCLUDE\10.0.16299.0\UCRT\CORECRT_WTIME.H
C:\PROGRAM FILES (X86)\WINDOWS KITS\10\INCLUDE\10.0.16299.0\UCRT\SYS\STAT.H
C:\PROGRAM FILES (X86)\WINDOWS KITS\10\INCLUDE\10.0.16299.0\UCRT\SYS\TYPES.H
^D:\MOJE PLIKI\ATH\4 SEM\GRAFIKA\GIT\SPRAWOZDANIE5\555\SOURCE.CPP
D:\PROGRAMY\VISUAL STUDIO 2017 ENTERPRISE\VC\TOOLS\MSVC\14.13.26128\BIN\HOSTX86\X86\1033\CLUI.DLL
C:\WINDOWS\GLOBALIZATION\SORTING\SORTDEFAULT.NLS
D:\MOJE PLIKI\ATH\4 SEM\GRAFIKA\GIT\SPRAWOZDANIE5\555\DEBUG\555.PCH
C:\WINDOWS\SYSTEM32\TZRES.DLL
D:\MOJE PLIKI\ATH\4 SEM\GRAFIKA\GIT\SPRAWOZDANIE5\PACKAGES\NUPENGL.CORE.0.1.0.1\BUILD\NATIVE\INCLUDE\GL\GLUT.H
D:\MOJE PLIKI\ATH\4 SEM\GRAFIKA\GIT\SPRAWOZDANIE5\PACKAGES\NUPENGL.CORE.0.1.0.1\BUILD\NATIVE\INCLUDE\GL\FREEGLUT_STD.H
C:\PROGRAM FILES (X86)\WINDOWS KITS\10\INCLUDE\10.0.16299.0\UM\WINDOWS.H
C:\PROGRAM FILES (X86)\WINDOWS KITS\10\INCLUDE\10.0.16299.0\SHARED\WINAPIFAMILY.H
C:\PROGRAM FILES (X86)\WINDOWS KITS\10\INCLUDE\10.0.16299.0\SHARED\WINPACKAGEFAMILY.H
D:\PROGRAMY\VISUAL STUDIO 2017 ENTERPRISE\VC\TOOLS\MSVC\14.13.26128\INCLUDE\EXCPT.H
D:\PROGRAMY\VISUAL STUDIO 2017 ENTERPRISE\VC\TOOLS\MSVC\14.13.26128\INCLUDE\VCRUNTIME.H
D:\PROGRAMY\VISUAL STUDIO 2017 ENTERPRISE\VC\TOOLS\MSVC\14.13.26128\INCLUDE\STDARG.H
C:\PROGRAM FILES (X86)\WINDOWS KITS\10\INCLUDE\10.0.16299.0\SHARED\WINDEF.H
C:\PROGRAM FILES (X86)\WINDOWS KITS\10\INCLUDE\10.0.16299.0\SHARED\MINWINDEF.H
C:\PROGRAM FILES (X86)\WINDOWS KITS\10\INCLUDE\10.0.16299.0\SHARED\SPECSTRINGS.H
C:\PROGRAM FILES (X86)\WINDOWS KITS\10\INCLUDE\10.0.16299.0\SHARED\SPECSTRINGS_STRICT.H
C:\PROGRAM FILES (X86)\WINDOWS KITS\10\INCLUDE\10.0.16299.0\SHARED\SPECSTRINGS_UNDEF.H
C:\PROGRAM FILES (X86)\WINDOWS KITS\10\INCLUDE\10.0.16299.0\SHARED\DRIVERSPECS.H
C:\PROGRAM FILES (X86)\WINDOWS KITS\10\INCLUDE\10.0.16299.0\SHARED\SDV_DRIVERSPECS.H
C:\PROGRAM FILES (X86)\WINDOWS KITS\10\INCLUDE\10.0.16299.0\UM\WINNT.H
C:\PROGRAM FILES (X86)\WINDOWS KITS\10\INCLUDE\10.0.16299.0\UCRT\CTYPE.H
C:\PROGRAM FILES (X86)\WINDOWS KITS\10\INCLUDE\10.0.16299.0\SHARED\KERNELSPECS.H
C:\PROGRAM FILES (X86)\WINDOWS KITS\10\INCLUDE\10.0.16299.0\SHARED\BASETSD.H
C:\PROGRAM FILES (X86)\WINDOWS KITS\10\INCLUDE\10.0.16299.0\SHARED\GUIDDEF.H
C:\PROGRAM FILES (X86)\WINDOWS KITS\10\INCLUDE\10.0.16299.0\UCRT\STRING.H
C:\PROGRAM FILES (X86)\WINDOWS KITS\10\INCLUDE\10.0.16299.0\UCRT\CORECRT_MEMORY.H
C:\PROGRAM FILES (X86)\WINDOWS KITS\10\INCLUDE\10.0.16299.0\SHARED\PSHPACK4.H
C:\PROGRAM FILES (X86)\WINDOWS KITS\10\INCLUDE\10.0.16299.0\SHARED\POPPACK.H
C:\PROGRAM FILES (X86)\WINDOWS KITS\10\INCLUDE\10.0.16299.0\SHARED\PSHPACK2.H
C:\PROGRAM FILES (X86)\WINDOWS KITS\10\INCLUDE\10.0.16299.0\SHARED\PSHPACK8.H
C:\PROGRAM FILES (X86)\WINDOWS KITS\10\INCLUDE\10.0.16299.0\SHARED\PSHPACK1.H
C:\PROGRAM FILES (X86)\WINDOWS KITS\10\INCLUDE\10.0.16299.0\SHARED\APISET.H
C:\PROGRAM FILES (X86)\WINDOWS KITS\10\INCLUDE\10.0.16299.0\SHARED\KTMTYPES.H
C:\PROGRAM FILES (X86)\WINDOWS KITS\10\INCLUDE\10.0.16299.0\UM\WINBASE.H
C:\PROGRAM FILES (X86)\WINDOWS KITS\10\INCLUDE\10.0.16299.0\SHARED\APISETCCONV.H
C:\PROGRAM FILES (X86)\WINDOWS KITS\10\INCLUDE\10.0.16299.0\UM\MINWINBASE.H
C:\PROGRAM FILES (X86)\WINDOWS KITS\10\INCLUDE\10.0.16299.0\UM\PROCESSENV.H
C:\PROGRAM FILES (X86)\WINDOWS KITS\10\INCLUDE\10.0.16299.0\UM\FILEAPI.H
C:\PROGRAM FILES (X86)\WINDOWS KITS\10\INCLUDE\10.0.16299.0\UM\DEBUGAPI.H
C:\PROGRAM FILES (X86)\WINDOWS KITS\10\INCLUDE\10.0.16299.0\UM\UTILAPISET.H
C:\PROGRAM FILES (X86)\WINDOWS KITS\10\INCLUDE\10.0.16299.0\UM\HANDLEAPI.H
C:\PROGRAM FILES (X86)\WINDOWS KITS\10\INCLUDE\10.0.16299.0\UM\ERRHANDLINGAPI.H
C:\PROGRAM FILES (X86)\WINDOWS KITS\10\INCLUDE\10.0.16299.0\UM\FIBERSAPI.H
C:\PROGRAM FILES (X86)\WINDOWS KITS\10\INCLUDE\10.0.16299.0\UM\NAMEDPIPEAPI.H
C:\PROGRAM FILES (X86)\WINDOWS KITS\10\INCLUDE\10.0.16299.0\UM\PROFILEAPI.H
C:\PROGRAM FILES (X86)\WINDOWS KITS\10\INCLUDE\10.0.16299.0\UM\HEAPAPI.H
C:\PROGRAM FILES (X86)\WINDOWS KITS\10\INCLUDE\10.0.16299.0\UM\IOAPISET.H
C:\PROGRAM FILES (X86)\WINDOWS KITS\10\INCLUDE\10.0.16299.0\UM\SYNCHAPI.H
C:\PROGRAM FILES (X86)\WINDOWS KITS\10\INCLUDE\10.0.16299.0\UM\INTERLOCKEDAPI.H
C:\PROGRAM FILES (X86)\WINDOWS KITS\10\INCLUDE\10.0.16299.0\UM\PROCESSTHREADSAPI.H
C:\PROGRAM FILES (X86)\WINDOWS KITS\10\INCLUDE\10.0.16299.0\UM\SYSINFOAPI.H
C:\PROGRAM FILES (X86)\WINDOWS KITS\10\INCLUDE\10.0.16299.0\UM\MEMORYAPI.H
C:\PROGRAM FILES (X86)\WINDOWS KITS\10\INCLUDE\10.0.16299.0\UM\ENCLAVEAPI.H
C:\PROGRAM FILES (X86)\WINDOWS KITS\10\INCLUDE\10.0.16299.0\UM\THREADPOOLLEGACYAPISET.H
C:\PROGRAM FILES (X86)\WINDOWS KITS\10\INCLUDE\10.0.16299.0\UM\THREADPOOLAPISET.H
C:\PROGRAM FILES (X86)\WINDOWS KITS\10\INCLUDE\10.0.16299.0\UM\JOBAPI.H
C:\PROGRAM FILES (X86)\WINDOWS KITS\10\INCLUDE\10.0.16299.0\UM\JOBAPI2.H
C:\PROGRAM FILES (X86)\WINDOWS KITS\10\INCLUDE\10.0.16299.0\UM\WOW64APISET.H
C:\PROGRAM FILES (X86)\WINDOWS KITS\10\INCLUDE\10.0.16299.0\UM\LIBLOADERAPI.H
C:\PROGRAM FILES (X86)\WINDOWS KITS\10\INCLUDE\10.0.16299.0\UM\SECURITYBASEAPI.H
C:\PROGRAM FILES (X86)\WINDOWS KITS\10\INCLUDE\10.0.16299.0\UM\NAMESPACEAPI.H
C:\PROGRAM FILES (X86)\WINDOWS KITS\10\INCLUDE\10.0.16299.0\UM\SYSTEMTOPOLOGYAPI.H
C:\PROGRAM FILES (X86)\WINDOWS KITS\10\INCLUDE\10.0.16299.0\UM\PROCESSTOPOLOGYAPI.H
C:\PROGRAM FILES (X86)\WINDOWS KITS\10\INCLUDE\10.0.16299.0\UM\SECURITYAPPCONTAINER.H
C:\PROGRAM FILES (X86)\WINDOWS KITS\10\INCLUDE\10.0.16299.0\UM\REALTIMEAPISET.H
C:\PROGRAM FILES (X86)\WINDOWS KITS\10\INCLUDE\10.0.16299.0\SHARED\WINERROR.H
C:\PROGRAM FILES (X86)\WINDOWS KITS\10\INCLUDE\10.0.16299.0\UM\TIMEZONEAPI.H
C:\PROGRAM FILES (X86)\WINDOWS KITS\10\INCLUDE\10.0.16299.0\UM\WINGDI.H
C:\PROGRAM FILES (X86)\WINDOWS KITS\10\INCLUDE\10.0.16299.0\UM\WINUSER.H
C:\PROGRAM FILES (X86)\WINDOWS KITS\10\INCLUDE\10.0.16299.0\SHARED\TVOUT.H
C:\PROGRAM FILES (X86)\WINDOWS KITS\10\INCLUDE\10.0.16299.0\UM\WINNLS.H
C:\PROGRAM FILES (X86)\WINDOWS KITS\10\INCLUDE\10.0.16299.0\UM\DATETIMEAPI.H
C:\PROGRAM FILES (X86)\WINDOWS KITS\10\INCLUDE\10.0.16299.0\UM\STRINGAPISET.H
C:\PROGRAM FILES (X86)\WINDOWS KITS\10\INCLUDE\10.0.16299.0\UM\WINCON.H
C:\PROGRAM FILES (X86)\WINDOWS KITS\10\INCLUDE\10.0.16299.0\UM\CONSOLEAPI.H
C:\PROGRAM FILES (X86)\WINDOWS KITS\10\INCLUDE\10.0.16299.0\UM\WINVER.H
C:\PROGRAM FILES (X86)\WINDOWS KITS\10\INCLUDE\10.0.16299.0\UM\VERRSRC.H
C:\PROGRAM FILES (X86)\WINDOWS KITS\10\INCLUDE\10.0.16299.0\UM\WINREG.H
C:\PROGRAM FILES (X86)\WINDOWS KITS\10\INCLUDE\10.0.16299.0\UM\REASON.H
C:\PROGRAM FILES (X86)\WINDOWS KITS\10\INCLUDE\10.0.16299.0\UM\WINNETWK.H
C:\PROGRAM FILES (X86)\WINDOWS KITS\10\INCLUDE\10.0.16299.0\SHARED\WNNC.H
C:\PROGRAM FILES (X86)\WINDOWS KITS\10\INCLUDE\10.0.16299.0\SHARED\STRALIGN.H
C:\PROGRAM FILES (X86)\WINDOWS KITS\10\INCLUDE\10.0.16299.0\UM\WINSVC.H
C:\PROGRAM FILES (X86)\WINDOWS KITS\10\INCLUDE\10.0.16299.0\UM\MCX.H
C:\PROGRAM FILES (X86)\WINDOWS KITS\10\INCLUDE\10.0.16299.0\UM\IMM.H
C:\PROGRAM FILES (X86)\WINDOWS KITS\10\INCLUDE\10.0.16299.0\UM\IME_CMODES.H
C:\PROGRAM FILES (X86)\WINDOWS KITS\10\INCLUDE\10.0.16299.0\UM\GL\GL.H
C:\PROGRAM FILES (X86)\WINDOWS KITS\10\INCLUDE\10.0.16299.0\UM\GL\GLU.H
C:\PROGRAM FILES (X86)\WINDOWS KITS\10\INCLUDE\10.0.16299.0\UCRT\STDLIB.H
C:\PROGRAM FILES (X86)\WINDOWS KITS\10\INCLUDE\10.0.16299.0\UCRT\CORECRT_MALLOC.H
C:\PROGRAM FILES (X86)\WINDOWS KITS\10\INCLUDE\10.0.16299.0\UCRT\CORECRT_SEARCH.H
C:\PROGRAM FILES (X86)\WINDOWS KITS\10\INCLUDE\10.0.16299.0\UCRT\STDDEF.H
D:\PROGRAMY\VISUAL STUDIO 2017 ENTERPRISE\VC\TOOLS\MSVC\14.13.26128\INCLUDE\LIMITS.H
D:\MOJE PLIKI\ATH\4 SEM\GRAFIKA\GIT\SPRAWOZDANIE5\555\GLEXT.H
D:\MOJE PLIKI\ATH\4 SEM\GRAFIKA\GIT\SPRAWOZDANIE5\555\MATERIALS.H
D:\PROGRAMY\VISUAL STUDIO 2017 ENTERPRISE\VC\TOOLS\MSVC\14.13.26128\INCLUDE\ARRAY
D:\PROGRAMY\VISUAL STUDIO 2017 ENTERPRISE\VC\TOOLS\MSVC\14.13.26128\INCLUDE\ALGORITHM
D:\PROGRAMY\VISUAL STUDIO 2017 ENTERPRISE\VC\TOOLS\MSVC\14.13.26128\INCLUDE\XMEMORY
D:\PROGRAMY\VISUAL STUDIO 2017 ENTERPRISE\VC\TOOLS\MSVC\14.13.26128\INCLUDE\XMEMORY0
D:\PROGRAMY\VISUAL STUDIO 2017 ENTERPRISE\VC\TOOLS\MSVC\14.13.26128\INCLUDE\CSTDINT
D:\PROGRAMY\VISUAL STUDIO 2017 ENTERPRISE\VC\TOOLS\MSVC\14.13.26128\INCLUDE\YVALS.H
D:\PROGRAMY\VISUAL STUDIO 2017 ENTERPRISE\VC\TOOLS\MSVC\14.13.26128\INCLUDE\XKEYCHECK.H
D:\PROGRAMY\VISUAL STUDIO 2017 ENTERPRISE\VC\TOOLS\MSVC\14.13.26128\INCLUDE\CRTDEFS.H
D:\PROGRAMY\VISUAL STUDIO 2017 ENTERPRISE\VC\TOOLS\MSVC\14.13.26128\INCLUDE\USE_ANSI.H
D:\PROGRAMY\VISUAL STUDIO 2017 ENTERPRISE\VC\TOOLS\MSVC\14.13.26128\INCLUDE\STDINT.H
D:\PROGRAMY\VISUAL STUDIO 2017 ENTERPRISE\VC\TOOLS\MSVC\14.13.26128\INCLUDE\CSTDLIB
C:\PROGRAM FILES (X86)\WINDOWS KITS\10\INCLUDE\10.0.16299.0\UCRT\MATH.H
C:\PROGRAM FILES (X86)\WINDOWS KITS\10\INCLUDE\10.0.16299.0\UCRT\CORECRT_MATH.H
D:\PROGRAMY\VISUAL STUDIO 2017 ENTERPRISE\VC\TOOLS\MSVC\14.13.26128\INCLUDE\LIMITS
D:\PROGRAMY\VISUAL STUDIO 2017 ENTERPRISE\VC\TOOLS\MSVC\14.13.26128\INCLUDE\YMATH.H
D:\PROGRAMY\VISUAL STUDIO 2017 ENTERPRISE\VC\TOOLS\MSVC\14.13.26128\INCLUDE\CFLOAT
C:\PROGRAM FILES (X86)\WINDOWS KITS\10\INCLUDE\10.0.16299.0\UCRT\FLOAT.H
D:\PROGRAMY\VISUAL STUDIO 2017 ENTERPRISE\VC\TOOLS\MSVC\14.13.26128\INCLUDE\CLIMITS
D:\PROGRAMY\VISUAL STUDIO 2017 ENTERPRISE\VC\TOOLS\MSVC\14.13.26128\INCLUDE\CMATH
D:\PROGRAMY\VISUAL STUDIO 2017 ENTERPRISE\VC\TOOLS\MSVC\14.13.26128\INCLUDE\XTGMATH.H
D:\PROGRAMY\VISUAL STUDIO 2017 ENTERPRISE\VC\TOOLS\MSVC\14.13.26128\INCLUDE\XTR1COMMON
D:\PROGRAMY\VISUAL STUDIO 2017 ENTERPRISE\VC\TOOLS\MSVC\14.13.26128\INCLUDE\CWCHAR
D:\PROGRAMY\VISUAL STUDIO 2017 ENTERPRISE\VC\TOOLS\MSVC\14.13.26128\INCLUDE\XSTDDEF
D:\PROGRAMY\VISUAL STUDIO 2017 ENTERPRISE\VC\TOOLS\MSVC\14.13.26128\INCLUDE\CSTDDEF
D:\PROGRAMY\VISUAL STUDIO 2017 ENTERPRISE\VC\TOOLS\MSVC\14.13.26128\INCLUDE\INITIALIZER_LIST
D:\PROGRAMY\VISUAL STUDIO 2017 ENTERPRISE\VC\TOOLS\MSVC\14.13.26128\INCLUDE\NEW
D:\PROGRAMY\VISUAL STUDIO 2017 ENTERPRISE\VC\TOOLS\MSVC\14.13.26128\INCLUDE\EXCEPTION
D:\PROGRAMY\VISUAL STUDIO 2017 ENTERPRISE\VC\TOOLS\MSVC\14.13.26128\INCLUDE\TYPE_TRAITS
C:\PROGRAM FILES (X86)\WINDOWS KITS\10\INCLUDE\10.0.16299.0\UCRT\MALLOC.H
D:\PROGRAMY\VISUAL STUDIO 2017 ENTERPRISE\VC\TOOLS\MSVC\14.13.26128\INCLUDE\VCRUNTIME_EXCEPTION.H
D:\PROGRAMY\VISUAL STUDIO 2017 ENTERPRISE\VC\TOOLS\MSVC\14.13.26128\INCLUDE\EH.H
C:\PROGRAM FILES (X86)\WINDOWS KITS\10\INCLUDE\10.0.16299.0\UCRT\CORECRT_TERMINATE.H
D:\PROGRAMY\VISUAL STUDIO 2017 ENTERPRISE\VC\TOOLS\MSVC\14.13.26128\INCLUDE\VCRUNTIME_NEW.H
D:\PROGRAMY\VISUAL STUDIO 2017 ENTERPRISE\VC\TOOLS\MSVC\14.13.26128\INCLUDE\XUTILITY
D:\PROGRAMY\VISUAL STUDIO 2017 ENTERPRISE\VC\TOOLS\MSVC\14.13.26128\INCLUDE\UTILITY
D:\PROGRAMY\VISUAL STUDIO 2017 ENTERPRISE\VC\TOOLS\MSVC\14.13.26128\INCLUDE\IOSFWD
D:\PROGRAMY\VISUAL STUDIO 2017 ENTERPRISE\VC\TOOLS\MSVC\14.13.26128\INCLUDE\CSTDIO
D:\PROGRAMY\VISUAL STUDIO 2017 ENTERPRISE\VC\TOOLS\MSVC\14.13.26128\INCLUDE\CSTRING
C:\PROGRAM FILES (X86)\WINDOWS KITS\10\INCLUDE\10.0.16299.0\UCRT\CRTDBG.H
D:\PROGRAMY\VISUAL STUDIO 2017 ENTERPRISE\VC\TOOLS\MSVC\14.13.26128\INCLUDE\VCRUNTIME_NEW_DEBUG.H
D:\PROGRAMY\VISUAL STUDIO 2017 ENTERPRISE\VC\TOOLS\MSVC\14.13.26128\INCLUDE\XATOMIC0.H
D:\PROGRAMY\VISUAL STUDIO 2017 ENTERPRISE\VC\TOOLS\MSVC\14.13.26128\INCLUDE\INTRIN0.H
D:\PROGRAMY\VISUAL STUDIO 2017 ENTERPRISE\VC\TOOLS\MSVC\14.13.26128\INCLUDE\ITERATOR
D:\PROGRAMY\VISUAL STUDIO 2017 ENTERPRISE\VC\TOOLS\MSVC\14.13.26128\INCLUDE\ISTREAM
D:\PROGRAMY\VISUAL STUDIO 2017 ENTERPRISE\VC\TOOLS\MSVC\14.13.26128\INCLUDE\OSTREAM
D:\PROGRAMY\VISUAL STUDIO 2017 ENTERPRISE\VC\TOOLS\MSVC\14.13.26128\INCLUDE\IOS
D:\PROGRAMY\VISUAL STUDIO 2017 ENTERPRISE\VC\TOOLS\MSVC\14.13.26128\INCLUDE\XLOCNUM
D:\PROGRAMY\VISUAL STUDIO 2017 ENTERPRISE\VC\TOOLS\MSVC\14.13.26128\INCLUDE\STREAMBUF
D:\PROGRAMY\VISUAL STUDIO 2017 ENTERPRISE\VC\TOOLS\MSVC\14.13.26128\INCLUDE\XIOSBASE
D:\PROGRAMY\VISUAL STUDIO 2017 ENTERPRISE\VC\TOOLS\MSVC\14.13.26128\INCLUDE\XLOCALE
D:\PROGRAMY\VISUAL STUDIO 2017 ENTERPRISE\VC\TOOLS\MSVC\14.13.26128\INCLUDE\STDEXCEPT
D:\PROGRAMY\VISUAL STUDIO 2017 ENTERPRISE\VC\TOOLS\MSVC\14.13.26128\INCLUDE\XSTRING
D:\PROGRAMY\VISUAL STUDIO 2017 ENTERPRISE\VC\TOOLS\MSVC\14.13.26128\INCLUDE\TYPEINFO
D:\PROGRAMY\VISUAL STUDIO 2017 ENTERPRISE\VC\TOOLS\MSVC\14.13.26128\INCLUDE\VCRUNTIME_TYPEINFO.H
D:\PROGRAMY\VISUAL STUDIO 2017 ENTERPRISE\VC\TOOLS\MSVC\14.13.26128\INCLUDE\XLOCINFO
D:\PROGRAMY\VISUAL STUDIO 2017 ENTERPRISE\VC\TOOLS\MSVC\14.13.26128\INCLUDE\XLOCINFO.H
C:\PROGRAM FILES (X86)\WINDOWS KITS\10\INCLUDE\10.0.16299.0\UCRT\LOCALE.H
D:\PROGRAMY\VISUAL STUDIO 2017 ENTERPRISE\VC\TOOLS\MSVC\14.13.26128\INCLUDE\XFACET
D:\PROGRAMY\VISUAL STUDIO 2017 ENTERPRISE\VC\TOOLS\MSVC\14.13.26128\INCLUDE\SYSTEM_ERROR
D:\PROGRAMY\VISUAL STUDIO 2017 ENTERPRISE\VC\TOOLS\MSVC\14.13.26128\INCLUDE\CERRNO
D:\PROGRAMY\VISUAL STUDIO 2017 ENTERPRISE\VC\TOOLS\MSVC\14.13.26128\INCLUDE\XCALL_ONCE.H
C:\PROGRAM FILES (X86)\WINDOWS KITS\10\INCLUDE\10.0.16299.0\UCRT\SHARE.H
D:\PROGRAMY\VISUAL STUDIO 2017 ENTERPRISE\VC\TOOLS\MSVC\14.13.26128\INCLUDE\TUPLE
D:\MOJE PLIKI\ATH\4 SEM\GRAFIKA\GIT\SPRAWOZDANIE5\555\VECTORMATH.CPP
D:\MOJE PLIKI\ATH\4 SEM\GRAFIKA\GIT\SPRAWOZDANIE5\555\GLTOOLS_EXTRACTED.H
D:\MOJE PLIKI\ATH\4 SEM\GRAFIKA\GIT\SPRAWOZDANIE5\555\COLORS.H
