#Command: "D:\Programy\Visual Studio 2017 Enterprise\VC\Tools\MSVC\14.13.26128\bin\HostX86\x86\link.exe" /ERRORREPORT:PROMPT @C:\Users\owik1\AppData\Local\Temp\tmp47599963518d43c2a56a38d95394599a.rsp
^G:\GRAF LAB5 DZIAŁA!!!!!\555\DEBUG\SOURCE.OBJ|G:\GRAF LAB5 DZIAŁA!!!!!\555\DEBUG\STDAFX.OBJ
G:\GRAF LAB5 DZIAŁA!!!!!\DEBUG\555.PDB
