^C:\USERS\49693\DOCUMENTS\VISUAL STUDIO 2015\PROJECTS\CONSOLEAPPLICATION4\CONSOLEAPPLICATION4\DEBUG\CONSOLEAPPLICATION4.OBJ|C:\USERS\49693\DOCUMENTS\VISUAL STUDIO 2015\PROJECTS\CONSOLEAPPLICATION4\CONSOLEAPPLICATION4\DEBUG\STDAFX.OBJ|C:\USERS\49693\DOCUMENTS\VISUAL STUDIO 2015\PROJECTS\CONSOLEAPPLICATION4\CONSOLEAPPLICATION4\DEBUG\TARGA.OBJ
/OUT:"C:\USERS\49693\DOCUMENTS\VISUAL STUDIO 2015\PROJECTS\CONSOLEAPPLICATION4\DEBUG\CONSOLEAPPLICATION4.EXE" /INCREMENTAL /NOLOGO "C:\USERS\49693\DOCUMENTS\VISUAL STUDIO 2015\PROJECTS\CONSOLEAPPLICATION4\PACKAGES\NUPENGL.CORE.0.1.0.1\BUILD\NATIVE\../..//BUILD/NATIVE/LIB/WIN32\GLEW32.LIB" "C:\USERS\49693\DOCUMENTS\VISUAL STUDIO 2015\PROJECTS\CONSOLEAPPLICATION4\PACKAGES\NUPENGL.CORE.0.1.0.1\BUILD\NATIVE\../..//BUILD/NATIVE/LIB/WIN32\GLFW3DLL.LIB" "C:\USERS\49693\DOCUMENTS\VISUAL STUDIO 2015\PROJECTS\CONSOLEAPPLICATION4\PACKAGES\NUPENGL.CORE.0.1.0.1\BUILD\NATIVE\../..//BUILD/NATIVE/LIB/WIN32\FREEGLUT.LIB" KERNEL32.LIB USER32.LIB GDI32.LIB WINSPOOL.LIB COMDLG32.LIB ADVAPI32.LIB SHELL32.LIB OLE32.LIB OLEAUT32.LIB UUID.LIB ODBC32.LIB ODBCCP32.LIB /MANIFEST /MANIFESTUAC:"level='asInvoker' uiAccess='false'" /manifest:embed /DEBUG /PDB:"C:\USERS\49693\DOCUMENTS\VISUAL STUDIO 2015\PROJECTS\CONSOLEAPPLICATION4\DEBUG\CONSOLEAPPLICATION4.PDB" /SUBSYSTEM:CONSOLE /TLBID:1 /DYNAMICBASE /NXCOMPAT /IMPLIB:"C:\USERS\49693\DOCUMENTS\VISUAL STUDIO 2015\PROJECTS\CONSOLEAPPLICATION4\DEBUG\CONSOLEAPPLICATION4.LIB" /MACHINE:X86 DEBUG\CONSOLEAPPLICATION4.OBJDEBUG\STDAFX.OBJDEBUG\TARGA.OBJ
^F:\GRAF LAB 4\CONSOLEAPPLICATION4\DEBUG\CONSOLEAPPLICATION4.OBJ|F:\GRAF LAB 4\CONSOLEAPPLICATION4\DEBUG\STDAFX.OBJ|F:\GRAF LAB 4\CONSOLEAPPLICATION4\DEBUG\TARGA.OBJ
/OUT:"F:\GRAF LAB 4\DEBUG\CONSOLEAPPLICATION4.EXE" /INCREMENTAL /NOLOGO "F:\GRAF LAB 4\PACKAGES\NUPENGL.CORE.0.1.0.1\BUILD\NATIVE\../..//BUILD/NATIVE/LIB/WIN32\GLEW32.LIB" "F:\GRAF LAB 4\PACKAGES\NUPENGL.CORE.0.1.0.1\BUILD\NATIVE\../..//BUILD/NATIVE/LIB/WIN32\GLFW3DLL.LIB" "F:\GRAF LAB 4\PACKAGES\NUPENGL.CORE.0.1.0.1\BUILD\NATIVE\../..//BUILD/NATIVE/LIB/WIN32\FREEGLUT.LIB" KERNEL32.LIB USER32.LIB GDI32.LIB WINSPOOL.LIB COMDLG32.LIB ADVAPI32.LIB SHELL32.LIB OLE32.LIB OLEAUT32.LIB UUID.LIB ODBC32.LIB ODBCCP32.LIB /MANIFEST /MANIFESTUAC:"level='asInvoker' uiAccess='false'" /manifest:embed /DEBUG:FASTLINK /PDB:"F:\GRAF LAB 4\DEBUG\CONSOLEAPPLICATION4.PDB" /SUBSYSTEM:CONSOLE /TLBID:1 /DYNAMICBASE /NXCOMPAT /IMPLIB:"F:\GRAF LAB 4\DEBUG\CONSOLEAPPLICATION4.LIB" /MACHINE:X86 DEBUG\CONSOLEAPPLICATION4.OBJDEBUG\STDAFX.OBJDEBUG\TARGA.OBJ
^D:\MOJE PLIKI\ATH\4 SEM\GRAFIKA\GIT\SPRAWOZDANIE4\GRAF LAB 4\CONSOLEAPPLICATION4\DEBUG\CONSOLEAPPLICATION4.OBJ|D:\MOJE PLIKI\ATH\4 SEM\GRAFIKA\GIT\SPRAWOZDANIE4\GRAF LAB 4\CONSOLEAPPLICATION4\DEBUG\STDAFX.OBJ|D:\MOJE PLIKI\ATH\4 SEM\GRAFIKA\GIT\SPRAWOZDANIE4\GRAF LAB 4\CONSOLEAPPLICATION4\DEBUG\TARGA.OBJ
/OUT:"D:\MOJE PLIKI\ATH\4 SEM\GRAFIKA\GIT\SPRAWOZDANIE4\GRAF LAB 4\DEBUG\CONSOLEAPPLICATION4.EXE" /INCREMENTAL /NOLOGO "D:\MOJE PLIKI\ATH\4 SEM\GRAFIKA\GIT\SPRAWOZDANIE4\GRAF LAB 4\PACKAGES\NUPENGL.CORE.0.1.0.1\BUILD\NATIVE\../..//BUILD/NATIVE/LIB/WIN32\GLEW32.LIB" "D:\MOJE PLIKI\ATH\4 SEM\GRAFIKA\GIT\SPRAWOZDANIE4\GRAF LAB 4\PACKAGES\NUPENGL.CORE.0.1.0.1\BUILD\NATIVE\../..//BUILD/NATIVE/LIB/WIN32\GLFW3DLL.LIB" "D:\MOJE PLIKI\ATH\4 SEM\GRAFIKA\GIT\SPRAWOZDANIE4\GRAF LAB 4\PACKAGES\NUPENGL.CORE.0.1.0.1\BUILD\NATIVE\../..//BUILD/NATIVE/LIB/WIN32\FREEGLUT.LIB" KERNEL32.LIB USER32.LIB GDI32.LIB WINSPOOL.LIB COMDLG32.LIB ADVAPI32.LIB SHELL32.LIB OLE32.LIB OLEAUT32.LIB UUID.LIB ODBC32.LIB ODBCCP32.LIB /MANIFEST /MANIFESTUAC:"level='asInvoker' uiAccess='false'" /manifest:embed /DEBUG:FASTLINK /PDB:"D:\MOJE PLIKI\ATH\4 SEM\GRAFIKA\GIT\SPRAWOZDANIE4\GRAF LAB 4\DEBUG\CONSOLEAPPLICATION4.PDB" /SUBSYSTEM:CONSOLE /TLBID:1 /DYNAMICBASE /NXCOMPAT /IMPLIB:"D:\MOJE PLIKI\ATH\4 SEM\GRAFIKA\GIT\SPRAWOZDANIE4\GRAF LAB 4\DEBUG\CONSOLEAPPLICATION4.LIB" /MACHINE:X86 DEBUG\CONSOLEAPPLICATION4.OBJDEBUG\STDAFX.OBJDEBUG\TARGA.OBJ
^D:\MOJE PLIKI\ATH\4 SEM\GRAFIKA\GIT\SPRAWOZDANIE3\ZAD3\ZAD3\CONSOLEAPPLICATION4\DEBUG\CONSOLEAPPLICATION4.OBJ|D:\MOJE PLIKI\ATH\4 SEM\GRAFIKA\GIT\SPRAWOZDANIE3\ZAD3\ZAD3\CONSOLEAPPLICATION4\DEBUG\STDAFX.OBJ|D:\MOJE PLIKI\ATH\4 SEM\GRAFIKA\GIT\SPRAWOZDANIE3\ZAD3\ZAD3\CONSOLEAPPLICATION4\DEBUG\TARGA.OBJ
/OUT:"D:\MOJE PLIKI\ATH\4 SEM\GRAFIKA\GIT\SPRAWOZDANIE3\ZAD3\ZAD3\DEBUG\CONSOLEAPPLICATION4.EXE" /INCREMENTAL /NOLOGO "D:\MOJE PLIKI\ATH\4 SEM\GRAFIKA\GIT\SPRAWOZDANIE3\ZAD3\ZAD3\PACKAGES\NUPENGL.CORE.0.1.0.1\BUILD\NATIVE\../..//BUILD/NATIVE/LIB/WIN32\GLEW32.LIB" "D:\MOJE PLIKI\ATH\4 SEM\GRAFIKA\GIT\SPRAWOZDANIE3\ZAD3\ZAD3\PACKAGES\NUPENGL.CORE.0.1.0.1\BUILD\NATIVE\../..//BUILD/NATIVE/LIB/WIN32\GLFW3DLL.LIB" "D:\MOJE PLIKI\ATH\4 SEM\GRAFIKA\GIT\SPRAWOZDANIE3\ZAD3\ZAD3\PACKAGES\NUPENGL.CORE.0.1.0.1\BUILD\NATIVE\../..//BUILD/NATIVE/LIB/WIN32\FREEGLUT.LIB" KERNEL32.LIB USER32.LIB GDI32.LIB WINSPOOL.LIB COMDLG32.LIB ADVAPI32.LIB SHELL32.LIB OLE32.LIB OLEAUT32.LIB UUID.LIB ODBC32.LIB ODBCCP32.LIB /MANIFEST /MANIFESTUAC:"level='asInvoker' uiAccess='false'" /manifest:embed /DEBUG:FASTLINK /PDB:"D:\MOJE PLIKI\ATH\4 SEM\GRAFIKA\GIT\SPRAWOZDANIE3\ZAD3\ZAD3\DEBUG\CONSOLEAPPLICATION4.PDB" /SUBSYSTEM:CONSOLE /TLBID:1 /DYNAMICBASE /NXCOMPAT /IMPLIB:"D:\MOJE PLIKI\ATH\4 SEM\GRAFIKA\GIT\SPRAWOZDANIE3\ZAD3\ZAD3\DEBUG\CONSOLEAPPLICATION4.LIB" /MACHINE:X86 DEBUG\CONSOLEAPPLICATION4.OBJDEBUG\STDAFX.OBJDEBUG\TARGA.OBJ
