^D:\DOWNLOADS\GRAFIKA-MASTER\GRAFIKA-MASTER\ZAJECIE8- KULA I THORUS W OSTROSŁUPIE\CONSOLEAPPLICATION1\CONSOLEAPPLICATION1\STDAFX.CPP
D:\DOWNLOADS\GRAFIKA-MASTER\GRAFIKA-MASTER\ZAJECIE8- KULA I THORUS W OSTROSłUPIE\CONSOLEAPPLICATION1\CONSOLEAPPLICATION1\DEBUG\CONSOLEAPPLICATION1.PCH
D:\DOWNLOADS\GRAFIKA-MASTER\GRAFIKA-MASTER\ZAJECIE8- KULA I THORUS W OSTROSłUPIE\CONSOLEAPPLICATION1\CONSOLEAPPLICATION1\DEBUG\VC141.PDB
D:\DOWNLOADS\GRAFIKA-MASTER\GRAFIKA-MASTER\ZAJECIE8- KULA I THORUS W OSTROSłUPIE\CONSOLEAPPLICATION1\CONSOLEAPPLICATION1\DEBUG\VC141.IDB
D:\DOWNLOADS\GRAFIKA-MASTER\GRAFIKA-MASTER\ZAJECIE8- KULA I THORUS W OSTROSłUPIE\CONSOLEAPPLICATION1\CONSOLEAPPLICATION1\DEBUG\STDAFX.OBJ
^D:\DOWNLOADS\GRAFIKA-MASTER\GRAFIKA-MASTER\ZAJECIE8- KULA I THORUS W OSTROSŁUPIE\CONSOLEAPPLICATION1\CONSOLEAPPLICATION1\CONSOLEAPPLICATION1.CPP
D:\DOWNLOADS\GRAFIKA-MASTER\GRAFIKA-MASTER\ZAJECIE8- KULA I THORUS W OSTROSłUPIE\CONSOLEAPPLICATION1\CONSOLEAPPLICATION1\DEBUG\VC141.PDB
D:\DOWNLOADS\GRAFIKA-MASTER\GRAFIKA-MASTER\ZAJECIE8- KULA I THORUS W OSTROSłUPIE\CONSOLEAPPLICATION1\CONSOLEAPPLICATION1\DEBUG\VC141.IDB
D:\DOWNLOADS\GRAFIKA-MASTER\GRAFIKA-MASTER\ZAJECIE8- KULA I THORUS W OSTROSłUPIE\CONSOLEAPPLICATION1\CONSOLEAPPLICATION1\DEBUG\CONSOLEAPPLICATION1.OBJ
^D:\MOJE PLIKI\ATH\4 SEM\GRAFIKA\GIT\SPRAWOZDANIE8\CONSOLEAPPLICATION1\STDAFX.CPP
D:\MOJE PLIKI\ATH\4 SEM\GRAFIKA\GIT\SPRAWOZDANIE8\CONSOLEAPPLICATION1\DEBUG\CONSOLEAPPLICATION1.PCH
D:\MOJE PLIKI\ATH\4 SEM\GRAFIKA\GIT\SPRAWOZDANIE8\CONSOLEAPPLICATION1\DEBUG\VC141.PDB
D:\MOJE PLIKI\ATH\4 SEM\GRAFIKA\GIT\SPRAWOZDANIE8\CONSOLEAPPLICATION1\DEBUG\VC141.IDB
D:\MOJE PLIKI\ATH\4 SEM\GRAFIKA\GIT\SPRAWOZDANIE8\CONSOLEAPPLICATION1\DEBUG\STDAFX.OBJ
^D:\MOJE PLIKI\ATH\4 SEM\GRAFIKA\GIT\SPRAWOZDANIE8\CONSOLEAPPLICATION1\CONSOLEAPPLICATION1.CPP
D:\MOJE PLIKI\ATH\4 SEM\GRAFIKA\GIT\SPRAWOZDANIE8\CONSOLEAPPLICATION1\DEBUG\VC141.PDB
D:\MOJE PLIKI\ATH\4 SEM\GRAFIKA\GIT\SPRAWOZDANIE8\CONSOLEAPPLICATION1\DEBUG\VC141.IDB
D:\MOJE PLIKI\ATH\4 SEM\GRAFIKA\GIT\SPRAWOZDANIE8\CONSOLEAPPLICATION1\DEBUG\CONSOLEAPPLICATION1.OBJ
